OPEN SCIENCE INDICATOR PRODUCTS: SEAGRASS TRANSECT DATA AND DASHBOARD
…
---
class: top, left

.center[
## TBEPTOOLS: DATA ACCESS
]

```r
library(tbeptools)
transect <- read_transect()
transect
```

```
## # A tibble: 132,354 x 7
##    Date       Transect Site  Depth Savspecies  var                 aveval
##    <date>     <chr>    <chr> <int> <chr>       <chr>                <dbl>
##  1 2020-11-04 S5T8     0        -5 No Cover    Abundance                0
##  2 2020-11-04 S5T8     0        -5 No Cover    Blade Length             0
##  3 2020-11-04 S5T8     0        -5 No Cover    Short Shoot Density    NaN
##  4 2020-11-04 S5T8     10      -12 Halodule    Abundance                5
##  5 2020-11-04 S5T8     10      -12 Halodule    Blade Length             0
##  6 2020-11-04 S5T8     10      -12 Halodule    Short Shoot Density    NaN
##  7 2020-11-04 S5T8     100    -180 Syringodium Abundance                4
##  8 2020-11-04 S5T8     100    -180 Syringodium Blade Length             0
##  9 2020-11-04 S5T8     100    -180 Syringodium Short Shoot Density    NaN
## 10 2020-11-04 S5T8     11      -20 Halodule    Abundance                2
## # ... with 132,344 more rows
```
…
---
class: top, left

.center[
## TBEPTOOLS: DATA ACCESS
]

```r
transectocc <- anlz_transectocc(transect)
transectocc
```

```
## # A tibble: 11,709 x 6
## # Groups:   Date, Transect [1,301]
##    Date       Transect Savspecies  nsites  foest bbest
##    <date>     <chr>    <chr>        <int>  <dbl> <dbl>
##  1 1997-10-11 S2T3     AA              41 0      0    
##  2 1997-10-11 S2T3     Caulerpa        41 0      0    
##  3 1997-10-11 S2T3     DA              41 0      0    
##  4 1997-10-11 S2T3     Halodule        41 0.0488 0.146
##  5 1997-10-11 S2T3     Halophila       41 0      0    
##  6 1997-10-11 S2T3     No Cover        41 0.951  4.76 
##  7 1997-10-11 S2T3     Ruppia          41 0      0    
##  8 1997-10-11 S2T3     Syringodium     41 0      0    
##  9 1997-10-11 S2T3     Thalassia       41 0      0    
## 10 1997-10-11 S2T5     AA              34 0      0    
## # ... with 11,699 more rows
```
…
