Open source reporting tools for the PEP Monitoring Collaborative: Beach Pathogens and Dissolved Oxygen
…
class: left, top

.center[
## ESTIMATE SEGMENT MEDIANS
]

* All segment annual values based on medians, account for censored data (secchi on bottom)

```r
medpep <- anlz_medpep(dat)
medpep$ann
```

```
## # A tibble: 792 x 5
##    bay_segment    yr   val est    var  
##    <fct>       <dbl> <dbl> <chr>  <chr>
##  1 Western      2019  3.03 lwr.ci chla 
##  2 Western      2019  3.98 medv   chla 
##  3 Western      2019  5.13 upr.ci chla 
##  4 Western      2018  3.45 lwr.ci chla 
##  5 Western      2018  4.05 medv   chla 
##  6 Western      2018  5.07 upr.ci chla 
##  7 Western      2017  3.03 lwr.ci chla 
##  8 Western      2017  4.22 medv   chla 
##  9 Western      2017  5.89 upr.ci chla 
## 10 Western      2016  2.8  lwr.ci chla 
## # ... with 782 more rows
```
…
---

.center[
## REPORTING
]

* Apply targets to annual medians

```r
anlz_attainpep(medpep)
```

```
## # A tibble: 132 x 4
##    bay_segment    yr chla_sd outcome
##    <fct>       <dbl> <chr>   <chr>  
##  1 Western      2019 0_2     yellow 
##  2 Western      2018 0_3     yellow 
##  3 Western      2017 2_3     red    
##  4 Western      2016 0_3     yellow 
##  5 Western      2015 0_2     yellow 
##  6 Western      2014 0_0     green  
##  7 Western      2013 0_1     yellow 
##  8 Western      2012 0_2     yellow 
##  9 Western      2011 0_2     yellow 
## 10 Western      2010 1_3     red    
## # ... with 122 more rows
```
…
class: left, top

.center[
## DO: SUMMARIZE
]

* Summarize the data with [`anlz_domopep()`](https://tbep-tech.github.io/pepreporting/reference/anlz_domopep.html)

```r
anlz_domopep(dodat, thr = 2.3)
```

```
## # A tibble: 189 x 6
##    site             yr mo    do_mgl below_ave below_maxrun
##  * <fct>         <dbl> <ord>  <dbl>     <dbl>        <dbl>
##  1 Peconic River  2013 Jan    11.6      0                0
##  2 Peconic River  2013 Feb    11.9      0                0
##  3 Peconic River  2013 Mar    11.7      0                0
##  4 Peconic River  2013 Apr     9.55     0                0
##  5 Peconic River  2013 May     7.90     0                0
##  6 Peconic River  2013 Jun     5.73     0.2              3
##  7 Peconic River  2013 Jul     3.12     0.889           12
##  8 Peconic River  2013 Aug     3.13     0.917           11
##  9 Peconic River  2013 Sep     4.81     0.483            6
## 10 Peconic River  2013 Oct     6.03     0.261            4
## # ... with 179 more rows
```
…
