Open source water quality reporting tools for the PEP Monitoring Collaborative
…
---

class: left, top

.center[
## ESTIMATE SEGMENT MEDIANS
]

```r
medpep <- anlz_medpep(dat)
medpep$ann
```

```
## # A tibble: 792 x 5
##    bay_segment    yr   val est    var  
##    <fct>       <dbl> <dbl> <chr>  <chr>
##  1 Western      1976  9.90 lwr.ci chla 
##  2 Western      1976 26.8  medv   chla 
##  3 Western      1976 44.9  upr.ci chla 
##  4 Western      1977 NA    lwr.ci chla 
##  5 Western      1977 NA    medv   chla 
##  6 Western      1977 NA    upr.ci chla 
##  7 Western      1978 NA    lwr.ci chla 
##  8 Western      1978 NA    medv   chla 
##  9 Western      1978 NA    upr.ci chla 
## 10 Western      1979 NA    lwr.ci chla 
## # ... with 782 more rows
```
---

class: left, top

.center[
## ESTIMATE SEGMENT MEDIANS
]

```r
medpep <- anlz_medpep(dat)
medpep$mos
```

```
## # A tibble: 3,168 x 6
##    bay_segment    yr    mo   val est   var  
##    <fct>       <dbl> <dbl> <dbl> <chr> <chr>
##  1 Western      1976     1  NA   medv  chla 
##  2 Western      1976     2  NA   medv  chla 
##  3 Western      1976     3  NA   medv  chla 
##  4 Western      1976     4  NA   medv  chla 
##  5 Western      1976     5  NA   medv  chla 
##  6 Western      1976     6  NA   medv  chla 
##  7 Western      1976     7  30.8 medv  chla 
##  8 Western      1976     8  40.4 medv  chla 
##  9 Western      1976     9  16.9 medv  chla 
## 10 Western      1976    10  NA   medv  chla 
## # ... with 3,158 more rows
```
…
