Piney Point Data and Analysis
…
class: left, top

.center[
# Getting the data
]

* All files are "tidy" and able to join by station, source and/or date

```r
load(url('https://tbep-tech.github.io/piney-point/data/rswqdat.RData'))
rswqdat
```

```
## # A tibble: 7,065 x 12
##    station date       source var   uni     val qual  bswqstation lbs     nrmrng 
##    <chr>   <date>     <chr>  <chr> <chr> <dbl> <chr> <chr>       <chr>   <chr>  
##  1 16      2021-03-23 epchc  do    mgl    6.62 <NA>  16          DO (mg~ 6.07-6~
##  2 19      2021-03-23 epchc  do    mgl    6.56 <NA>  19          DO (mg~ 6.08-6~
##  3 21      2021-03-23 epchc  do    mgl    6.56 <NA>  202         DO (mg~ 6.29-7~
##  4 22      2021-03-23 epchc  do    mgl    7.7  <NA>  362         DO (mg~ 6.92-7~
##  5 23      2021-03-23 epchc  do    mgl    6.5  <NA>  23          DO (mg~ 6.01-6~
##  6 24      2021-03-23 epchc  do    mgl    6.82 <NA>  24          DO (mg~ 5.87-6~
##  7 25      2021-03-23 epchc  do    mgl    7.32 <NA>  25          DO (mg~ 6.34-8~
##  8 28      2021-03-23 epchc  do    mgl    6.66 <NA>  28          DO (mg~ 6.03-7~
##  9 82      2021-03-23 epchc  do    mgl    6.92 <NA>  82          DO (mg~ 6.17-7~
## 10 84      2021-03-23 epchc  do    mgl    6.64 <NA>  84          DO (mg~ 5.83-6~
## # ... with 7,055 more rows, and 2 more variables: lbunis <chr>, inrng <chr>
```
…
